Lab 9: Latest extension packages for visualization
…
count: false
 
### gghighlight :: highlighting specific lines and points while preserving main data
.panel1-gghighlight2-auto[

```r
## For each continent, find top 3 countries by avg GDP per cap
*gapminder
```
]
 
.panel2-gghighlight2-auto[

```
# A tibble: 1,704 x 6
   country     continent  year lifeExp      pop gdpPercap
   <fct>       <fct>     <int>   <dbl>    <int>     <dbl>
 1 Afghanistan Asia       1952    28.8  8425333      779.
 2 Afghanistan Asia       1957    30.3  9240934      821.
 3 Afghanistan Asia       1962    32.0 10267083      853.
 4 Afghanistan Asia       1967    34.0 11537966      836.
 5 Afghanistan Asia       1972    36.1 13079460      740.
 6 Afghanistan Asia       1977    38.4 14880372      786.
 7 Afghanistan Asia       1982    39.9 12881816      978.
 8 Afghanistan Asia       1987    40.8 13867957      852.
 9 Afghanistan Asia       1992    41.7 16317921      649.
10 Afghanistan Asia       1997    41.8 22227415      635.
# … with 1,694 more rows
```
…
### gghighlight :: highlighting specific lines and points while preserving main data
.panel1-gghighlight2-auto[

```r
## For each continent, find top 3 countries by avg GDP per cap
gapminder %>%
* group_by(country, continent)
```
]
 
.panel2-gghighlight2-auto[

```
# A tibble: 1,704 x 6
# Groups:   country, continent [142]
   country     continent  year lifeExp      pop gdpPercap
   <fct>       <fct>     <int>   <dbl>    <int>     <dbl>
 1 Afghanistan Asia       1952    28.8  8425333      779.
 2 Afghanistan Asia       1957    30.3  9240934      821.
 3 Afghanistan Asia       1962    32.0 10267083      853.
 4 Afghanistan Asia       1967    34.0 11537966      836.
 5 Afghanistan Asia       1972    36.1 13079460      740.
 6 Afghanistan Asia       1977    38.4 14880372      786.
 7 Afghanistan Asia       1982    39.9 12881816      978.
 8 Afghanistan Asia       1987    40.8 13867957      852.
 9 Afghanistan Asia       1992    41.7 16317921      649.
10 Afghanistan Asia       1997    41.8 22227415      635.
# … with 1,694 more rows
```
…
### gghighlight :: highlighting specific lines and points while preserving main data
.panel1-gghighlight2-auto[

```r
## For each continent, find top 3 countries by avg GDP per cap
gapminder %>%
  group_by(country, continent) %>%
* summarize(mean_gdpPercap = mean(gdpPercap))
```
]
 
.panel2-gghighlight2-auto[

```
# A tibble: 142 x 3
# Groups:   country [142]
   country     continent mean_gdpPercap
   <fct>       <fct>              <dbl>
 1 Afghanistan Asia                803.
 2 Albania     Europe             3255.
 3 Algeria     Africa             4426.
 4 Angola      Africa             3607.
 5 Argentina   Americas           8956.
 6 Australia   Oceania           19981.
 7 Austria     Europe            20412.
 8 Bahrain     Asia              18078.
 9 Bangladesh  Asia                818.
10 Belgium     Europe            19901.
# … with 132 more rows
```
…
```r
## For each continent, find top 3 countries by avg GDP per cap
gapminder %>%
  group_by(country, continent) %>%
  summarize(mean_gdpPercap = mean(gdpPercap)) %>%
* group_by(continent)
```
]
 
.panel2-gghighlight2-auto[

```
# A tibble: 142 x 3
# Groups:   continent [5]
   country     continent mean_gdpPercap
   <fct>       <fct>              <dbl>
 1 Afghanistan Asia                803.
 2 Albania     Europe             3255.
 3 Algeria     Africa             4426.
 4 Angola      Africa             3607.
 5 Argentina   Americas           8956.
 6 Australia   Oceania           19981.
 7 Austria     Europe            20412.
 8 Bahrain     Asia              18078.
 9 Bangladesh  Asia                818.
10 Belgium     Europe            19901.
# … with 132 more rows
```
…
count: false
 
### geofacet :: arranging plots in a grid that resembles original geographical orientation
.panel1-geofacet-auto[

```r
*as_tibble(state_unemp)
```
]
 
.panel2-geofacet-auto[

```
# A tibble: 867 x 3
    year  rate state
   <int> <dbl> <chr>
 1  2000   4.6 AL   
 2  2001   6   AL   
 3  2002   5.8 AL   
 4  2003   6   AL   
 5  2004   5.2 AL   
 6  2005   4.2 AL   
 7  2006   3.9 AL   
 8  2007   4.4 AL   
 9  2008   8.3 AL   
10  2009  11.8 AL   
# … with 857 more rows
```
…
### ggridges :: visualizing multiple distributions over time or across groups
.panel1-ggridges-auto[

```r
dark_colors <- c("#D55E00", "#0072B2")
light_colors <- c("#D55E0050", "#0072B250")

*as_tibble(Aus_athletes)
```
]
 
.panel2-ggridges-auto[

```
# A tibble: 202 x 13
     rcc   wcc    hc    hg  ferr   bmi   ssf pcBfat   lbm height weight sex  
   <dbl> <dbl> <dbl> <dbl> <int> <dbl> <dbl>  <dbl> <dbl>  <dbl>  <dbl> <fct>
 1  3.96   7.5  37.5  12.3    60  20.6 109.    19.8  63.3   196.   78.9 f    
 2  4.41   8.3  38.2  12.7    68  20.7 103.    21.3  58.6   190.   74.4 f    
 3  4.14   5    36.4  11.6    21  21.9 105.    19.9  55.4   178.   69.1 f    
 4  4.11   5.3  37.3  12.6    69  21.9 126.    23.7  57.2   185    74.9 f    
 5  4.45   6.8  41.5  14      29  19.0  80.3   17.6  53.2   185.   64.6 f    
 6  4.1    4.4  37.4  12.5    42  21.0  75.2   15.6  53.8   174    63.7 f    
 7  4.31   5.3  39.6  12.8    73  21.7  87.2   20.0  60.2   186.   75.2 f    
 8  4.42   5.7  39.9  13.2    44  20.6  97.9   22.4  48.3   174.   62.3 f    
 9  4.3    8.9  41.1  13.5    41  22.6  75.1   18.0  54.6   171.   66.5 f    
10  4.51   4.4  41.6  12.7    44  19.4  65.1   15.1  53.4   180.   62.9 f    
# … with 192 more rows, and 1 more variable: sport <chr>
```
…
count: false
 
### ggforce :: annotating areas by group attributes
.panel1-ggforce-auto[

```r
*airports
```
]
 
.panel2-ggforce-auto[

```
# A tibble: 1,458 x 8
   faa   name                       lat    lon   alt    tz dst   tzone          
   <chr> <chr>                    <dbl>  <dbl> <dbl> <dbl> <chr> <chr>          
 1 04G   Lansdowne Airport         41.1  -80.6  1044    -5 A     America/New_Yo…
 2 06A   Moton Field Municipal A…  32.5  -85.7   264    -6 A     America/Chicago
 3 06C   Schaumburg Regional       42.0  -88.1   801    -6 A     America/Chicago
 4 06N   Randall Airport           41.4  -74.4   523    -5 A     America/New_Yo…
 5 09J   Jekyll Island Airport     31.1  -81.4    11    -5 A     America/New_Yo…
 6 0A9   Elizabethton Municipal …  36.4  -82.2  1593    -5 A     America/New_Yo…
 7 0G6   Williams County Airport   41.5  -84.5   730    -5 A     America/New_Yo…
 8 0G7   Finger Lakes Regional A…  42.9  -76.8   492    -5 A     America/New_Yo…
 9 0P2   Shoestring Aviation Air…  39.8  -76.6  1000    -5 U     America/New_Yo…
10 0S9   Jefferson County Intl     48.1 -123.    108    -8 A     America/Los_An…
# … with 1,448 more rows
```
…
### ggforce :: annotating areas by group attributes
.panel1-ggforce-auto[

```r
airports %>%
* filter(lon < 0, tzone != "\\N")
```
]
 
.panel2-ggforce-auto[

```
# A tibble: 1,452 x 8
   faa   name                       lat    lon   alt    tz dst   tzone          
   <chr> <chr>                    <dbl>  <dbl> <dbl> <dbl> <chr> <chr>          
 1 04G   Lansdowne Airport         41.1  -80.6  1044    -5 A     America/New_Yo…
 2 06A   Moton Field Municipal A…  32.5  -85.7   264    -6 A     America/Chicago
 3 06C   Schaumburg Regional       42.0  -88.1   801    -6 A     America/Chicago
 4 06N   Randall Airport           41.4  -74.4   523    -5 A     America/New_Yo…
 5 09J   Jekyll Island Airport     31.1  -81.4    11    -5 A     America/New_Yo…
 6 0A9   Elizabethton Municipal …  36.4  -82.2  1593    -5 A     America/New_Yo…
 7 0G6   Williams County Airport   41.5  -84.5   730    -5 A     America/New_Yo…
 8 0G7   Finger Lakes Regional A…  42.9  -76.8   492    -5 A     America/New_Yo…
 9 0P2   Shoestring Aviation Air…  39.8  -76.6  1000    -5 U     America/New_Yo…
10 0S9   Jefferson County Intl     48.1 -123.    108    -8 A     America/Los_An…
# … with 1,442 more rows
```
…
count: false
 
### ggchicklet :: creating rounded rectangle segmented column charts
.panel1-ggchicklet1-auto[

```r
*debates2019
```
]
 
.panel2-ggchicklet1-auto[

```
# A tibble: 1,315 x 8
   elapsed timestamp speaker   topic   debate_date debate_group night notes
     <dbl> <time>    <chr>     <chr>   <date>             <dbl> <dbl> <chr>
 1   1.04  21:03:05  Warren    Economy 2019-09-13             1     1 <NA> 
 2   1.13  21:04:29  Klobuchar Economy 2019-09-13             1     1 <NA> 
 3   1.13  21:06:02  O'Rourke  Economy 2019-09-13             1     1 <NA> 
 4   0.226 21:07:20  O'Rourke  Economy 2019-09-13             1     1 <NA> 
 5   1.06  21:07:54  Booker    Economy 2019-09-13             1     1 <NA> 
 6   0.600 21:09:08  Booker    Economy 2019-09-13             1     1 <NA> 
 7   0.99  21:09:50  Warren    Economy 2019-09-13             1     1 <NA> 
 8   0.872 21:11:03  Castro    Economy 2019-09-13             1     1 <NA> 
 9   1.07  21:12:00  Gabbard   Economy 2019-09-13             1     1 <NA> 
10   1.11  21:13:20  de Blasio Economy 2019-09-13             1     1 <NA> 
# … with 1,305 more rows
```
…
### ggchicklet :: creating rounded rectangle segmented column charts
.panel1-ggchicklet1-auto[

```r
debates2019 %>%
* filter(debate_group == 1)
```
]
 
.panel2-ggchicklet1-auto[

```
# A tibble: 236 x 8
   elapsed timestamp speaker   topic   debate_date debate_group night notes
     <dbl> <time>    <chr>     <chr>   <date>             <dbl> <dbl> <chr>
 1   1.04  21:03:05  Warren    Economy 2019-09-13             1     1 <NA> 
 2   1.13  21:04:29  Klobuchar Economy 2019-09-13             1     1 <NA> 
 3   1.13  21:06:02  O'Rourke  Economy 2019-09-13             1     1 <NA> 
 4   0.226 21:07:20  O'Rourke  Economy 2019-09-13             1     1 <NA> 
 5   1.06  21:07:54  Booker    Economy 2019-09-13             1     1 <NA> 
 6   0.600 21:09:08  Booker    Economy 2019-09-13             1     1 <NA> 
 7   0.99  21:09:50  Warren    Economy 2019-09-13             1     1 <NA> 
 8   0.872 21:11:03  Castro    Economy 2019-09-13             1     1 <NA> 
 9   1.07  21:12:00  Gabbard   Economy 2019-09-13             1     1 <NA> 
10   1.11  21:13:20  de Blasio Economy 2019-09-13             1     1 <NA> 
# … with 226 more rows
```
…
.panel2-ggchicklet1-auto[

```
# A tibble: 236 x 8
   elapsed timestamp speaker   topic   debate_date debate_group night notes
     <dbl> <time>    <fct>     <fct>   <date>             <dbl> <dbl> <chr>
 1   1.04  21:03:05  Warren    Economy 2019-09-13             1     1 <NA> 
 2   1.13  21:04:29  Klobuchar Economy 2019-09-13             1     1 <NA> 
 3   1.13  21:06:02  O'Rourke  Economy 2019-09-13             1     1 <NA> 
 4   0.226 21:07:20  O'Rourke  Economy 2019-09-13             1     1 <NA> 
 5   1.06  21:07:54  Booker    Economy 2019-09-13             1     1 <NA> 
 6   0.600 21:09:08  Booker    Economy 2019-09-13             1     1 <NA> 
 7   0.99  21:09:50  Warren    Economy 2019-09-13             1     1 <NA> 
 8   0.872 21:11:03  Castro    Economy 2019-09-13             1     1 <NA> 
 9   1.07  21:12:00  Gabbard   Economy 2019-09-13             1     1 <NA> 
10   1.11  21:13:20  de Blasio Economy 2019-09-13             1     1 <NA> 
# … with 226 more rows
```
…
---
count: false
 
### gganimate :: creating animations from ggplot2 objects
.panel1-gganimate-auto[

```r
*gapminder
```
]
 
.panel2-gganimate-auto[

```
# A tibble: 1,704 x 6
   country     continent  year lifeExp      pop gdpPercap
   <fct>       <fct>     <int>   <dbl>    <int>     <dbl>
 1 Afghanistan Asia       1952    28.8  8425333      779.
 2 Afghanistan Asia       1957    30.3  9240934      821.
 3 Afghanistan Asia       1962    32.0 10267083      853.
 4 Afghanistan Asia       1967    34.0 11537966      836.
 5 Afghanistan Asia       1972    36.1 13079460      740.
 6 Afghanistan Asia       1977    38.4 14880372      786.
 7 Afghanistan Asia       1982    39.9 12881816      978.
 8 Afghanistan Asia       1987    40.8 13867957      852.
 9 Afghanistan Asia       1992    41.7 16317921      649.
10 Afghanistan Asia       1997    41.8 22227415      635.
# … with 1,694 more rows
```
…
count: false
 
### gganimate :: creating animations from ggplot2 objects
.panel1-gganimate2-auto[

```r
*gapminder
```
]
 
.panel2-gganimate2-auto[

```
# A tibble: 1,704 x 6
   country     continent  year lifeExp      pop gdpPercap
   <fct>       <fct>     <int>   <dbl>    <int>     <dbl>
 1 Afghanistan Asia       1952    28.8  8425333      779.
 2 Afghanistan Asia       1957    30.3  9240934      821.
 3 Afghanistan Asia       1962    32.0 10267083      853.
 4 Afghanistan Asia       1967    34.0 11537966      836.
 5 Afghanistan Asia       1972    36.1 13079460      740.
 6 Afghanistan Asia       1977    38.4 14880372      786.
 7 Afghanistan Asia       1982    39.9 12881816      978.
 8 Afghanistan Asia       1987    40.8 13867957      852.
 9 Afghanistan Asia       1992    41.7 16317921      649.
10 Afghanistan Asia       1997    41.8 22227415      635.
# … with 1,694 more rows
```
…
### gganimate :: creating animations from ggplot2 objects
.panel1-gganimate2-auto[

```r
gapminder %>%
* group_by(year)
```
]
 
.panel2-gganimate2-auto[

```
# A tibble: 1,704 x 6
# Groups:   year [12]
   country     continent  year lifeExp      pop gdpPercap
   <fct>       <fct>     <int>   <dbl>    <int>     <dbl>
 1 Afghanistan Asia       1952    28.8  8425333      779.
 2 Afghanistan Asia       1957    30.3  9240934      821.
 3 Afghanistan Asia       1962    32.0 10267083      853.
 4 Afghanistan Asia       1967    34.0 11537966      836.
 5 Afghanistan Asia       1972    36.1 13079460      740.
 6 Afghanistan Asia       1977    38.4 14880372      786.
 7 Afghanistan Asia       1982    39.9 12881816      978.
 8 Afghanistan Asia       1987    40.8 13867957      852.
 9 Afghanistan Asia       1992    41.7 16317921      649.
10 Afghanistan Asia       1997    41.8 22227415      635.
# … with 1,694 more rows
```
…
### gganimate :: creating animations from ggplot2 objects
.panel1-gganimate2-auto[

```r
gapminder %>%
  group_by(year) %>%
* arrange(year, desc(gdpPercap))
```
]
 
.panel2-gganimate2-auto[

```
# A tibble: 1,704 x 6
# Groups:   year [12]
   country        continent  year lifeExp       pop gdpPercap
   <fct>          <fct>     <int>   <dbl>     <int>     <dbl>
 1 Kuwait         Asia       1952    55.6    160000   108382.
 2 Switzerland    Europe     1952    69.6   4815000    14734.
 3 United States  Americas   1952    68.4 157553000    13990.
 4 Canada         Americas   1952    68.8  14785584    11367.
 5 New Zealand    Oceania    1952    69.4   1994794    10557.
 6 Norway         Europe     1952    72.7   3327728    10095.
 7 Australia      Oceania    1952    69.1   8691212    10040.
 8 United Kingdom Europe     1952    69.2  50430000     9980.
 9 Bahrain        Asia       1952    50.9    120447     9867.
10 Denmark        Europe     1952    70.8   4334000     9692.
# … with 1,694 more rows
```
…
### gganimate :: creating animations from ggplot2 objects
.panel1-gganimate2-auto[

```r
gapminder %>%
  group_by(year) %>%
  arrange(year, desc(gdpPercap)) %>%
* mutate(rank = row_number())
```
]
 
.panel2-gganimate2-auto[

```
# A tibble: 1,704 x 7
# Groups:   year [12]
   country        continent  year lifeExp       pop gdpPercap  rank
   <fct>          <fct>     <int>   <dbl>     <int>     <dbl> <int>
 1 Kuwait         Asia       1952    55.6    160000   108382.     1
 2 Switzerland    Europe     1952    69.6   4815000    14734.     2
 3 United States  Americas   1952    68.4 157553000    13990.     3
 4 Canada         Americas   1952    68.8  14785584    11367.     4
 5 New Zealand    Oceania    1952    69.4   1994794    10557.     5
 6 Norway         Europe     1952    72.7   3327728    10095.     6
 7 Australia      Oceania    1952    69.1   8691212    10040.     7
 8 United Kingdom Europe     1952    69.2  50430000     9980.     8
 9 Bahrain        Asia       1952    50.9    120447     9867.     9
10 Denmark        Europe     1952    70.8   4334000     9692.    10
# … with 1,694 more rows
```
…
```r
gapminder %>%
  group_by(year) %>%
  arrange(year, desc(gdpPercap)) %>%
  mutate(rank = row_number()) %>%
* filter(rank <= 10)
```
]
 
.panel2-gganimate2-auto[

```
# A tibble: 120 x 7
# Groups:   year [12]
   country        continent  year lifeExp       pop gdpPercap  rank
   <fct>          <fct>     <int>   <dbl>     <int>     <dbl> <int>
 1 Kuwait         Asia       1952    55.6    160000   108382.     1
 2 Switzerland    Europe     1952    69.6   4815000    14734.     2
 3 United States  Americas   1952    68.4 157553000    13990.     3
 4 Canada         Americas   1952    68.8  14785584    11367.     4
 5 New Zealand    Oceania    1952    69.4   1994794    10557.     5
 6 Norway         Europe     1952    72.7   3327728    10095.     6
 7 Australia      Oceania    1952    69.1   8691212    10040.     7
 8 United Kingdom Europe     1952    69.2  50430000     9980.     8
 9 Bahrain        Asia       1952    50.9    120447     9867.     9
10 Denmark        Europe     1952    70.8   4334000     9692.    10
# … with 110 more rows
```
…
count: false
 
### gganimate :: creating animations from ggplot2 objects
.panel1-gganimate3-auto[

```r
*gdppc_ranked_year
```
]
 
.panel2-gganimate3-auto[

```
# A tibble: 120 x 7
# Groups:   year [12]
   country        continent  year lifeExp       pop gdpPercap  rank
   <fct>          <fct>     <int>   <dbl>     <int>     <dbl> <int>
 1 Kuwait         Asia       1952    55.6    160000   108382.     1
 2 Switzerland    Europe     1952    69.6   4815000    14734.     2
 3 United States  Americas   1952    68.4 157553000    13990.     3
 4 Canada         Americas   1952    68.8  14785584    11367.     4
 5 New Zealand    Oceania    1952    69.4   1994794    10557.     5
 6 Norway         Europe     1952    72.7   3327728    10095.     6
 7 Australia      Oceania    1952    69.1   8691212    10040.     7
 8 United Kingdom Europe     1952    69.2  50430000     9980.     8
 9 Bahrain        Asia       1952    50.9    120447     9867.     9
10 Denmark        Europe     1952    70.8   4334000     9692.    10
# … with 110 more rows
```
…
