CS&SS 569 Visualizing Data and Models
…
count: false
 
## Many panels: Distribution of Nobel prize winners
.panel1-nobel2-auto[

```r
# select top 5 countries
*nobel
```
]
 
.panel2-nobel2-auto[

```
# A tibble: 881 × 7
   prize_year category   laureate_id full_name            gender organ…¹ prize…²
        <dbl> <chr>            <dbl> <chr>                <chr>  <chr>   <chr>  
 1       1901 Physics              1 Wilhelm Conrad Rönt… Male   Germany 1/1    
 2       1901 Chemistry          160 Jacobus Henricus va… Male   Germany 1/1    
 3       1901 Medicine           293 Emil Adolf von Behr… Male   Germany 1/1    
 4       1901 Peace              462 Jean Henry Dunant    Male   <NA>    1/2    
 5       1901 Peace              463 Frédéric Passy       Male   <NA>    1/2    
 6       1901 Literature         569 Sully Prudhomme      Male   <NA>    1/1    
 7       1902 Physics              2 Hendrik Antoon Lore… Male   Nether… 1/2    
 8       1902 Physics              3 Pieter Zeeman        Male   Nether… 1/2    
 9       1902 Chemistry          161 Hermann Emil Fischer Male   Germany 1/1    
10       1902 Medicine           294 Ronald Ross          Male   United… 1/1    
# … with 871 more rows, and abbreviated variable names ¹​organization_country,
#   ²​prize_share
```
…
## Many panels: Distribution of Nobel prize winners
.panel1-nobel2-auto[

```r
# select top 5 countries
nobel %>%
* count(organization_country)
```
]
 
.panel2-nobel2-auto[

```
# A tibble: 29 × 2
   organization_country                  n
   <chr>                             <int>
 1 Alsace (then Germany, now France)     1
 2 Argentina                             2
 3 Australia                             5
 4 Austria                               6
 5 Belgium                               5
 6 Canada                                7
 7 China                                 1
 8 Czechoslovakia                        1
 9 Denmark                               8
10 Finland                               1
# … with 19 more rows
```
…
## Many panels: Distribution of Nobel prize winners
.panel1-nobel2-auto[

```r
# select top 5 countries
nobel %>%
  count(organization_country) %>%
* drop_na()
```
]
 
.panel2-nobel2-auto[

```
# A tibble: 28 × 2
   organization_country                  n
   <chr>                             <int>
 1 Alsace (then Germany, now France)     1
 2 Argentina                             2
 3 Australia                             5
 4 Austria                               6
 5 Belgium                               5
 6 Canada                                7
 7 China                                 1
 8 Czechoslovakia                        1
 9 Denmark                               8
10 Finland                               1
# … with 18 more rows
```
…
count: false
 
## Many panels: Distribution of Nobel prize winners
.panel1-nobel3-auto[

```r
# filter obs from top 5 countries; create date column
*nobel
```
]
 
.panel2-nobel3-auto[

```
# A tibble: 881 × 7
   prize_year category   laureate_id full_name            gender organ…¹ prize…²
        <dbl> <chr>            <dbl> <chr>                <chr>  <chr>   <chr>  
 1       1901 Physics              1 Wilhelm Conrad Rönt… Male   Germany 1/1    
 2       1901 Chemistry          160 Jacobus Henricus va… Male   Germany 1/1    
 3       1901 Medicine           293 Emil Adolf von Behr… Male   Germany 1/1    
 4       1901 Peace              462 Jean Henry Dunant    Male   <NA>    1/2    
 5       1901 Peace              463 Frédéric Passy       Male   <NA>    1/2    
 6       1901 Literature         569 Sully Prudhomme      Male   <NA>    1/1    
 7       1902 Physics              2 Hendrik Antoon Lore… Male   Nether… 1/2    
 8       1902 Physics              3 Pieter Zeeman        Male   Nether… 1/2    
 9       1902 Chemistry          161 Hermann Emil Fischer Male   Germany 1/1    
10       1902 Medicine           294 Ronald Ross          Male   United… 1/1    
# … with 871 more rows, and abbreviated variable names ¹​organization_country,
#   ²​prize_share
```
…
## Many panels: Distribution of Nobel prize winners
.panel1-nobel3-auto[

```r
# filter obs from top 5 countries; create date column
nobel %>%
* filter(organization_country %in% top5_country)
```
]
 
.panel2-nobel3-auto[

```
# A tibble: 553 × 7
   prize_year category  laureate_id full_name             gender organ…¹ prize…²
        <dbl> <chr>           <dbl> <chr>                 <chr>  <chr>   <chr>  
 1       1901 Physics             1 Wilhelm Conrad Röntg… Male   Germany 1/1    
 2       1901 Chemistry         160 Jacobus Henricus van… Male   Germany 1/1    
 3       1901 Medicine          293 Emil Adolf von Behri… Male   Germany 1/1    
 4       1902 Chemistry         161 Hermann Emil Fischer  Male   Germany 1/1    
 5       1902 Medicine          294 Ronald Ross           Male   United… 1/1    
 6       1903 Physics             4 Antoine Henri Becque… Male   France  1/2    
 7       1903 Physics             5 Pierre Curie          Male   France  1/4    
 8       1904 Physics             8 Lord Rayleigh (John … Male   United… 1/1    
 9       1904 Chemistry         163 Sir William Ramsay    Male   United… 1/1    
10       1905 Physics             9 Philipp Eduard Anton… Male   Germany 1/1    
# … with 543 more rows, and abbreviated variable names ¹​organization_country,
#   ²​prize_share
```
…
## Many panels: Distribution of Nobel prize winners
.panel1-nobel3-auto[

```r
# filter obs from top 5 countries; create date column
nobel %>%
  filter(organization_country %in% top5_country) %>%
* mutate(prize_date = lubridate::ymd(paste0(prize_year, "-12-10")))
```
]
 
.panel2-nobel3-auto[

```
# A tibble: 553 × 8
   prize_year category  laureate_id full_name  gender organ…¹ prize…² prize_date
        <dbl> <chr>           <dbl> <chr>      <chr>  <chr>   <chr>   <date>    
 1       1901 Physics             1 Wilhelm C… Male   Germany 1/1     1901-12-10
 2       1901 Chemistry         160 Jacobus H… Male   Germany 1/1     1901-12-10
 3       1901 Medicine          293 Emil Adol… Male   Germany 1/1     1901-12-10
 4       1902 Chemistry         161 Hermann E… Male   Germany 1/1     1902-12-10
 5       1902 Medicine          294 Ronald Ro… Male   United… 1/1     1902-12-10
 6       1903 Physics             4 Antoine H… Male   France  1/2     1903-12-10
 7       1903 Physics             5 Pierre Cu… Male   France  1/4     1903-12-10
 8       1904 Physics             8 Lord Rayl… Male   United… 1/1     1904-12-10
 9       1904 Chemistry         163 Sir Willi… Male   United… 1/1     1904-12-10
10       1905 Physics             9 Philipp E… Male   Germany 1/1     1905-12-10
# … with 543 more rows, and abbreviated variable names ¹​organization_country,
#   ²​prize_share
```
…
```r
# filter obs from top 5 countries; create date column
nobel %>%
  filter(organization_country %in% top5_country) %>%
  mutate(prize_date = lubridate::ymd(paste0(prize_year, "-12-10"))) %>%
* select(prize_year, prize_date, everything())
```
]
 
.panel2-nobel3-auto[

```
# A tibble: 553 × 8
   prize_year prize_date category  laureate_id full_name  gender organ…¹ prize…²
        <dbl> <date>     <chr>           <dbl> <chr>      <chr>  <chr>   <chr>  
 1       1901 1901-12-10 Physics             1 Wilhelm C… Male   Germany 1/1    
 2       1901 1901-12-10 Chemistry         160 Jacobus H… Male   Germany 1/1    
 3       1901 1901-12-10 Medicine          293 Emil Adol… Male   Germany 1/1    
 4       1902 1902-12-10 Chemistry         161 Hermann E… Male   Germany 1/1    
 5       1902 1902-12-10 Medicine          294 Ronald Ro… Male   United… 1/1    
 6       1903 1903-12-10 Physics             4 Antoine H… Male   France  1/2    
 7       1903 1903-12-10 Physics             5 Pierre Cu… Male   France  1/4    
 8       1904 1904-12-10 Physics             8 Lord Rayl… Male   United… 1/1    
 9       1904 1904-12-10 Chemistry         163 Sir Willi… Male   United… 1/1    
10       1905 1905-12-10 Physics             9 Philipp E… Male   Germany 1/1    
# … with 543 more rows, and abbreviated variable names ¹​organization_country,
#   ²​prize_share
```
…
count: false
 
## Distribution of Nobel prize winners w/ facet_wrap()
.panel1-nobel5a-auto[

```r
*nobel_top5c
```
]
 
.panel2-nobel5a-auto[

```
# A tibble: 553 × 8
   prize_year prize_date category  laureate_id full_name  gender organ…¹ prize…²
        <dbl> <date>     <chr>           <dbl> <chr>      <chr>  <chr>   <chr>  
 1       1901 1901-12-10 Physics             1 Wilhelm C… Male   Germany 1/1    
 2       1901 1901-12-10 Chemistry         160 Jacobus H… Male   Germany 1/1    
 3       1901 1901-12-10 Medicine          293 Emil Adol… Male   Germany 1/1    
 4       1902 1902-12-10 Chemistry         161 Hermann E… Male   Germany 1/1    
 5       1902 1902-12-10 Medicine          294 Ronald Ro… Male   United… 1/1    
 6       1903 1903-12-10 Physics             4 Antoine H… Male   France  1/2    
 7       1903 1903-12-10 Physics             5 Pierre Cu… Male   France  1/4    
 8       1904 1904-12-10 Physics             8 Lord Rayl… Male   United… 1/1    
 9       1904 1904-12-10 Chemistry         163 Sir Willi… Male   United… 1/1    
10       1905 1905-12-10 Physics             9 Philipp E… Male   Germany 1/1    
# … with 543 more rows, and abbreviated variable names ¹​organization_country,
#   ²​prize_share
```
…
## Distribution of Nobel prize winners w/ facet_wrap()
.panel1-nobel5a-auto[

```r
nobel_top5c %>%
* mutate(decade = prize_year %/% 10 * 10)
```
]
 
.panel2-nobel5a-auto[

```
# A tibble: 553 × 9
   prize_year prize_date category  laure…¹ full_…² gender organ…³ prize…⁴ decade
        <dbl> <date>     <chr>       <dbl> <chr>   <chr>  <chr>   <chr>    <dbl>
 1       1901 1901-12-10 Physics         1 Wilhel… Male   Germany 1/1       1900
 2       1901 1901-12-10 Chemistry     160 Jacobu… Male   Germany 1/1       1900
 3       1901 1901-12-10 Medicine      293 Emil A… Male   Germany 1/1       1900
 4       1902 1902-12-10 Chemistry     161 Herman… Male   Germany 1/1       1900
 5       1902 1902-12-10 Medicine      294 Ronald… Male   United… 1/1       1900
 6       1903 1903-12-10 Physics         4 Antoin… Male   France  1/2       1900
 7       1903 1903-12-10 Physics         5 Pierre… Male   France  1/4       1900
 8       1904 1904-12-10 Physics         8 Lord R… Male   United… 1/1       1900
 9       1904 1904-12-10 Chemistry     163 Sir Wi… Male   United… 1/1       1900
10       1905 1905-12-10 Physics         9 Philip… Male   Germany 1/1       1900
# … with 543 more rows, and abbreviated variable names ¹​laureate_id,
#   ²​full_name, ³​organization_country, ⁴​prize_share
```
…
## Distribution of Nobel prize winners w/ facet_wrap()
.panel1-nobel5a-auto[

```r
nobel_top5c %>%
  mutate(decade = prize_year %/% 10 * 10) %>%
* group_by(decade, category, organization_country)
```
]
 
.panel2-nobel5a-auto[

```
# A tibble: 553 × 9
# Groups:   decade, category, organization_country [137]
   prize_year prize_date category  laure…¹ full_…² gender organ…³ prize…⁴ decade
        <dbl> <date>     <chr>       <dbl> <chr>   <chr>  <chr>   <chr>    <dbl>
 1       1901 1901-12-10 Physics         1 Wilhel… Male   Germany 1/1       1900
 2       1901 1901-12-10 Chemistry     160 Jacobu… Male   Germany 1/1       1900
 3       1901 1901-12-10 Medicine      293 Emil A… Male   Germany 1/1       1900
 4       1902 1902-12-10 Chemistry     161 Herman… Male   Germany 1/1       1900
 5       1902 1902-12-10 Medicine      294 Ronald… Male   United… 1/1       1900
 6       1903 1903-12-10 Physics         4 Antoin… Male   France  1/2       1900
 7       1903 1903-12-10 Physics         5 Pierre… Male   France  1/4       1900
 8       1904 1904-12-10 Physics         8 Lord R… Male   United… 1/1       1900
 9       1904 1904-12-10 Chemistry     163 Sir Wi… Male   United… 1/1       1900
10       1905 1905-12-10 Physics         9 Philip… Male   Germany 1/1       1900
# … with 543 more rows, and abbreviated variable names ¹​laureate_id,
#   ²​full_name, ³​organization_country, ⁴​prize_share
```
…
## Distribution of Nobel prize winners w/ facet_wrap()
.panel1-nobel5a-auto[

```r
nobel_top5c %>%
  mutate(decade = prize_year %/% 10 * 10) %>%
  group_by(decade, category, organization_country) %>%
* count()
```
]
 
.panel2-nobel5a-auto[

```
# A tibble: 137 × 4
# Groups:   decade, category, organization_country [137]
   decade category  organization_country     n
    <dbl> <chr>     <chr>                <int>
 1   1900 Chemistry France                   1
 2   1900 Chemistry Germany                  5
 3   1900 Chemistry United Kingdom           2
 4   1900 Medicine  France                   2
 5   1900 Medicine  Germany                  3
 6   1900 Medicine  Switzerland              1
 7   1900 Medicine  United Kingdom           1
 8   1900 Peace     France                   1
 9   1900 Physics   France                   3
10   1900 Physics   Germany                  2
# … with 127 more rows
```
…
```r
nobel_top5c %>%
  mutate(decade = prize_year %/% 10 * 10) %>%
  group_by(decade, category, organization_country) %>%
  count() %>%
* filter(category != "Peace")
```
]
 
.panel2-nobel5a-auto[

```
# A tibble: 133 × 4
# Groups:   decade, category, organization_country [133]
   decade category  organization_country     n
    <dbl> <chr>     <chr>                <int>
 1   1900 Chemistry France                   1
 2   1900 Chemistry Germany                  5
 3   1900 Chemistry United Kingdom           2
 4   1900 Medicine  France                   2
 5   1900 Medicine  Germany                  3
 6   1900 Medicine  Switzerland              1
 7   1900 Medicine  United Kingdom           1
 8   1900 Physics   France                   3
 9   1900 Physics   Germany                  2
10   1900 Physics   United Kingdom           3
# … with 123 more rows
```
…
count: false
 
## Many panels: Time trend of shares of Nobel prize
.panel1-nobel6-auto[

```r
# some wrangling
*nobel
```
]
 
.panel2-nobel6-auto[

```
# A tibble: 881 × 7
   prize_year category   laureate_id full_name            gender organ…¹ prize…²
        <dbl> <chr>            <dbl> <chr>                <chr>  <chr>   <chr>  
 1       1901 Physics              1 Wilhelm Conrad Rönt… Male   Germany 1/1    
 2       1901 Chemistry          160 Jacobus Henricus va… Male   Germany 1/1    
 3       1901 Medicine           293 Emil Adolf von Behr… Male   Germany 1/1    
 4       1901 Peace              462 Jean Henry Dunant    Male   <NA>    1/2    
 5       1901 Peace              463 Frédéric Passy       Male   <NA>    1/2    
 6       1901 Literature         569 Sully Prudhomme      Male   <NA>    1/1    
 7       1902 Physics              2 Hendrik Antoon Lore… Male   Nether… 1/2    
 8       1902 Physics              3 Pieter Zeeman        Male   Nether… 1/2    
 9       1902 Chemistry          161 Hermann Emil Fischer Male   Germany 1/1    
10       1902 Medicine           294 Ronald Ross          Male   United… 1/1    
# … with 871 more rows, and abbreviated variable names ¹​organization_country,
#   ²​prize_share
```
…
```r
# some wrangling
nobel %>%
* mutate(prize_share2 = case_when(prize_share == "1/1" ~ 1,
*                                 prize_share == "1/2" ~ 1/2,
*                                 prize_share == "1/3" ~ 1/3,
*                                 prize_share == "1/4" ~ 1/4))
```
]
 
.panel2-nobel6-auto[

```
# A tibble: 881 × 8
   prize_year category   laureate_id full_name    gender organ…¹ prize…² prize…³
        <dbl> <chr>            <dbl> <chr>        <chr>  <chr>   <chr>     <dbl>
 1       1901 Physics              1 Wilhelm Con… Male   Germany 1/1         1  
 2       1901 Chemistry          160 Jacobus Hen… Male   Germany 1/1         1  
 3       1901 Medicine           293 Emil Adolf … Male   Germany 1/1         1  
 4       1901 Peace              462 Jean Henry … Male   <NA>    1/2         0.5
 5       1901 Peace              463 Frédéric Pa… Male   <NA>    1/2         0.5
 6       1901 Literature         569 Sully Prudh… Male   <NA>    1/1         1  
 7       1902 Physics              2 Hendrik Ant… Male   Nether… 1/2         0.5
 8       1902 Physics              3 Pieter Zeem… Male   Nether… 1/2         0.5
 9       1902 Chemistry          161 Hermann Emi… Male   Germany 1/1         1  
10       1902 Medicine           294 Ronald Ross  Male   United… 1/1         1  
# … with 871 more rows, and abbreviated variable names ¹​organization_country,
#   ²​prize_share, ³​prize_share2
```
…
```r
# some wrangling
nobel %>%
  mutate(prize_share2 = case_when(prize_share == "1/1" ~ 1,
                                  prize_share == "1/2" ~ 1/2,
                                  prize_share == "1/3" ~ 1/3,
                                  prize_share == "1/4" ~ 1/4)) %>%
* mutate(last_name = str_extract(full_name, "(?<=[ -])\\w+$"))
```
]
 
.panel2-nobel6-auto[

```
# A tibble: 881 × 9
   prize_year category   laurea…¹ full_…² gender organ…³ prize…⁴ prize…⁵ last_…⁶
        <dbl> <chr>         <dbl> <chr>   <chr>  <chr>   <chr>     <dbl> <chr>  
 1       1901 Physics           1 Wilhel… Male   Germany 1/1         1   Röntgen
 2       1901 Chemistry       160 Jacobu… Male   Germany 1/1         1   Hoff   
 3       1901 Medicine        293 Emil A… Male   Germany 1/1         1   Behring
 4       1901 Peace           462 Jean H… Male   <NA>    1/2         0.5 Dunant 
 5       1901 Peace           463 Frédér… Male   <NA>    1/2         0.5 Passy  
 6       1901 Literature      569 Sully … Male   <NA>    1/1         1   Prudho…
 7       1902 Physics           2 Hendri… Male   Nether… 1/2         0.5 Lorentz
 8       1902 Physics           3 Pieter… Male   Nether… 1/2         0.5 Zeeman 
 9       1902 Chemistry       161 Herman… Male   Germany 1/1         1   Fischer
10       1902 Medicine        294 Ronald… Male   United… 1/1         1   Ross   
# … with 871 more rows, and abbreviated variable names ¹​laureate_id,
#   ²​full_name, ³​organization_country, ⁴​prize_share, ⁵​prize_share2, ⁶​last_name
```
…
count: false
 
## Many panels: Time trend of shares of Nobel prize
.panel1-nobel7-auto[

```r
*nobel2
```
]
 
.panel2-nobel7-auto[

```
# A tibble: 881 × 9
   prize_year category   laurea…¹ full_…² gender organ…³ prize…⁴ prize…⁵ last_…⁶
        <dbl> <chr>         <dbl> <chr>   <chr>  <chr>   <chr>     <dbl> <chr>  
 1       1901 Physics           1 Wilhel… Male   Germany 1/1         1   Röntgen
 2       1901 Chemistry       160 Jacobu… Male   Germany 1/1         1   Hoff   
 3       1901 Medicine        293 Emil A… Male   Germany 1/1         1   Behring
 4       1901 Peace           462 Jean H… Male   <NA>    1/2         0.5 Dunant 
 5       1901 Peace           463 Frédér… Male   <NA>    1/2         0.5 Passy  
 6       1901 Literature      569 Sully … Male   <NA>    1/1         1   Prudho…
 7       1902 Physics           2 Hendri… Male   Nether… 1/2         0.5 Lorentz
 8       1902 Physics           3 Pieter… Male   Nether… 1/2         0.5 Zeeman 
 9       1902 Chemistry       161 Herman… Male   Germany 1/1         1   Fischer
10       1902 Medicine        294 Ronald… Male   United… 1/1         1   Ross   
# … with 871 more rows, and abbreviated variable names ¹​laureate_id,
#   ²​full_name, ³​organization_country, ⁴​prize_share, ⁵​prize_share2, ⁶​last_name
```
…
