CS&SS 569 Visualizing Data and Models
…
count: false
 
## EV in WA state: Which county has most EVs?
.panel1-ev_by_county1-auto[

```r
# Count EVs by county
*ev_data
```
]
 
.panel2-ev_by_county1-auto[

```
# A tibble: 114,312 × 8
   county    city         make   model   model_year ev_type      elect…¹ retai…²
   <chr>     <chr>        <chr>  <chr>        <dbl> <chr>          <dbl>   <dbl>
 1 Kittitas  Cle Elum     TESLA  MODEL Y       2020 Battery Ele…     291       0
 2 Chelan    Chelan       TESLA  MODEL 3       2020 Battery Ele…     322       0
 3 Snohomish Snohomish    TESLA  MODEL 3       2018 Battery Ele…     215       0
 4 Thurston  Tumwater     FORD   C-MAX         2014 Plug-in Hyb…      19       0
 5 Kitsap    Kingston     FORD   FUSION        2013 Plug-in Hyb…      19       0
 6 King      Seattle      NISSAN LEAF          2018 Battery Ele…     151       0
 7 Skagit    Mount Vernon AUDI   E-TRON        2019 Battery Ele…     204       0
 8 Kitsap    Port Orchard NISSAN LEAF          2019 Battery Ele…     150       0
 9 Snohomish Bothell      TESLA  MODEL 3       2020 Battery Ele…     322       0
10 Yakima    Tieton       NISSAN LEAF          2019 Battery Ele…     150       0
# … with 114,302 more rows, and abbreviated variable names ¹​electric_range,
#   ²​retail_price
```
…
## EV in WA state: Which county has most EVs?
.panel1-ev_by_county1-auto[

```r
# Count EVs by county
ev_data %>%
* count(county)
```
]
 
.panel2-ev_by_county1-auto[

```
# A tibble: 39 × 2
   county       n
   <chr>    <int>
 1 Adams       35
 2 Asotin      46
 3 Benton    1394
 4 Chelan     654
 5 Clallam    741
 6 Clark     6827
 7 Columbia    13
 8 Cowlitz    576
 9 Douglas    227
10 Ferry       27
# … with 29 more rows
```
…
## EV in WA state: Which county has most EVs?
.panel1-ev_by_county1-auto[

```r
# Count EVs by county
ev_data %>%
  count(county) %>%
* mutate(county = fct_reorder(county, n))
```
]
 
.panel2-ev_by_county1-auto[

```
# A tibble: 39 × 2
   county       n
   <fct>    <int>
 1 Adams       35
 2 Asotin      46
 3 Benton    1394
 4 Chelan     654
 5 Clallam    741
 6 Clark     6827
 7 Columbia    13
 8 Cowlitz    576
 9 Douglas    227
10 Ferry       27
# … with 29 more rows
```
…
```r
# Count EVs by county
ev_data %>%
  count(county) %>%
  mutate(county = fct_reorder(county, n)) %>%
* arrange(desc(county))
```
]
 
.panel2-ev_by_county1-auto[

```
# A tibble: 39 × 2
   county        n
   <fct>     <int>
 1 King      60059
 2 Snohomish 12720
 3 Pierce     8684
 4 Clark      6827
 5 Thurston   4207
 6 Kitsap     3902
 7 Whatcom    2873
 8 Spokane    2835
 9 Benton     1394
10 Island     1307
# … with 29 more rows
```
…
count: false
 
## EV in WA state: Trend of number of EVs across county
.panel1-ev_by_countyYear1-auto[

```r
# Count number of EVs by county
*ev_data
```
]
 
.panel2-ev_by_countyYear1-auto[

```
# A tibble: 114,312 × 8
   county    city         make   model   model_year ev_type      elect…¹ retai…²
   <chr>     <chr>        <chr>  <chr>        <dbl> <chr>          <dbl>   <dbl>
 1 Kittitas  Cle Elum     TESLA  MODEL Y       2020 Battery Ele…     291       0
 2 Chelan    Chelan       TESLA  MODEL 3       2020 Battery Ele…     322       0
 3 Snohomish Snohomish    TESLA  MODEL 3       2018 Battery Ele…     215       0
 4 Thurston  Tumwater     FORD   C-MAX         2014 Plug-in Hyb…      19       0
 5 Kitsap    Kingston     FORD   FUSION        2013 Plug-in Hyb…      19       0
 6 King      Seattle      NISSAN LEAF          2018 Battery Ele…     151       0
 7 Skagit    Mount Vernon AUDI   E-TRON        2019 Battery Ele…     204       0
 8 Kitsap    Port Orchard NISSAN LEAF          2019 Battery Ele…     150       0
 9 Snohomish Bothell      TESLA  MODEL 3       2020 Battery Ele…     322       0
10 Yakima    Tieton       NISSAN LEAF          2019 Battery Ele…     150       0
# … with 114,302 more rows, and abbreviated variable names ¹​electric_range,
#   ²​retail_price
```
…
## EV in WA state: Trend of number of EVs across county
.panel1-ev_by_countyYear1-auto[

```r
# Count number of EVs by county
ev_data %>%
* group_by(model_year, county)
```
]
 
.panel2-ev_by_countyYear1-auto[

```
# A tibble: 114,312 × 8
# Groups:   model_year, county [497]
   county    city         make   model   model_year ev_type      elect…¹ retai…²
   <chr>     <chr>        <chr>  <chr>        <dbl> <chr>          <dbl>   <dbl>
 1 Kittitas  Cle Elum     TESLA  MODEL Y       2020 Battery Ele…     291       0
 2 Chelan    Chelan       TESLA  MODEL 3       2020 Battery Ele…     322       0
 3 Snohomish Snohomish    TESLA  MODEL 3       2018 Battery Ele…     215       0
 4 Thurston  Tumwater     FORD   C-MAX         2014 Plug-in Hyb…      19       0
 5 Kitsap    Kingston     FORD   FUSION        2013 Plug-in Hyb…      19       0
 6 King      Seattle      NISSAN LEAF          2018 Battery Ele…     151       0
 7 Skagit    Mount Vernon AUDI   E-TRON        2019 Battery Ele…     204       0
 8 Kitsap    Port Orchard NISSAN LEAF          2019 Battery Ele…     150       0
 9 Snohomish Bothell      TESLA  MODEL 3       2020 Battery Ele…     322       0
10 Yakima    Tieton       NISSAN LEAF          2019 Battery Ele…     150       0
# … with 114,302 more rows, and abbreviated variable names ¹​electric_range,
#   ²​retail_price
```
…
## EV in WA state: Trend of number of EVs across county
.panel1-ev_by_countyYear1-auto[

```r
# Count number of EVs by county
ev_data %>%
  group_by(model_year, county) %>%
* count()
```
]
 
.panel2-ev_by_countyYear1-auto[

```
# A tibble: 497 × 3
# Groups:   model_year, county [497]
   model_year county        n
        <dbl> <chr>     <int>
 1       1997 Snohomish     1
 2       1998 Clallam       1
 3       1999 Pierce        1
 4       1999 Skagit        1
 5       1999 Whatcom       1
 6       2000 King          4
 7       2000 San Juan      2
 8       2000 Snohomish     1
 9       2000 Whatcom       2
10       2002 Clallam       1
# … with 487 more rows
```
…
count: false
 
## EV in WA state: Relationship between price and range
.panel1-price_range1-auto[

```r
*ev_data
```
]
 
.panel2-price_range1-auto[

```
# A tibble: 114,312 × 8
   county    city         make   model   model_year ev_type      elect…¹ retai…²
   <chr>     <chr>        <chr>  <chr>        <dbl> <chr>          <dbl>   <dbl>
 1 Kittitas  Cle Elum     TESLA  MODEL Y       2020 Battery Ele…     291       0
 2 Chelan    Chelan       TESLA  MODEL 3       2020 Battery Ele…     322       0
 3 Snohomish Snohomish    TESLA  MODEL 3       2018 Battery Ele…     215       0
 4 Thurston  Tumwater     FORD   C-MAX         2014 Plug-in Hyb…      19       0
 5 Kitsap    Kingston     FORD   FUSION        2013 Plug-in Hyb…      19       0
 6 King      Seattle      NISSAN LEAF          2018 Battery Ele…     151       0
 7 Skagit    Mount Vernon AUDI   E-TRON        2019 Battery Ele…     204       0
 8 Kitsap    Port Orchard NISSAN LEAF          2019 Battery Ele…     150       0
 9 Snohomish Bothell      TESLA  MODEL 3       2020 Battery Ele…     322       0
10 Yakima    Tieton       NISSAN LEAF          2019 Battery Ele…     150       0
# … with 114,302 more rows, and abbreviated variable names ¹​electric_range,
#   ²​retail_price
```
…
## EV in WA state: Relationship between price and range
.panel1-price_range1-auto[

```r
ev_data %>%
* distinct(make, model, model_year, ev_type, electric_range, retail_price)
```
]
 
.panel2-price_range1-auto[

```
# A tibble: 427 × 6
   make   model   model_year ev_type                             elect…¹ retai…²
   <chr>  <chr>        <dbl> <chr>                                 <dbl>   <dbl>
 1 TESLA  MODEL Y       2020 Battery Electric Vehicle (BEV)          291       0
 2 TESLA  MODEL 3       2020 Battery Electric Vehicle (BEV)          322       0
 3 TESLA  MODEL 3       2018 Battery Electric Vehicle (BEV)          215       0
 4 FORD   C-MAX         2014 Plug-in Hybrid Electric Vehicle (P…      19       0
 5 FORD   FUSION        2013 Plug-in Hybrid Electric Vehicle (P…      19       0
 6 NISSAN LEAF          2018 Battery Electric Vehicle (BEV)          151       0
 7 AUDI   E-TRON        2019 Battery Electric Vehicle (BEV)          204       0
 8 NISSAN LEAF          2019 Battery Electric Vehicle (BEV)          150       0
 9 KIA    NIRO          2018 Plug-in Hybrid Electric Vehicle (P…      26       0
10 NISSAN LEAF          2012 Battery Electric Vehicle (BEV)           73       0
# … with 417 more rows, and abbreviated variable names ¹​electric_range,
#   ²​retail_price
```
…
## EV in WA state: Relationship between price and range
.panel1-price_range1-auto[

```r
ev_data %>%
  distinct(make, model, model_year, ev_type, electric_range, retail_price) %>%
* filter(retail_price > 0 & electric_range > 0)
```
]
 
.panel2-price_range1-auto[

```
# A tibble: 32 × 6
   make     model      model_year ev_type                        elect…¹ retai…²
   <chr>    <chr>           <dbl> <chr>                            <dbl>   <dbl>
 1 KIA      SOUL             2016 Battery Electric Vehicle (BEV)      93   31950
 2 KIA      SOUL EV          2018 Battery Electric Vehicle (BEV)     111   33950
 3 TESLA    MODEL S          2013 Battery Electric Vehicle (BEV)     208   69900
 4 TESLA    MODEL S          2014 Battery Electric Vehicle (BEV)     208   69900
 5 CHRYSLER PACIFICA         2019 Plug-in Hybrid Electric Vehic…      32   39995
 6 MINI     COUNTRYMAN       2018 Plug-in Hybrid Electric Vehic…      12   36800
 7 BMW      530E             2018 Plug-in Hybrid Electric Vehic…      14   54950
 8 TESLA    ROADSTER         2010 Battery Electric Vehicle (BEV)     245  110950
 9 KIA      SOUL EV          2017 Battery Electric Vehicle (BEV)      93   32250
10 VOLVO    XC60             2018 Plug-in Hybrid Electric Vehic…      17   52900
# … with 22 more rows, and abbreviated variable names ¹​electric_range,
#   ²​retail_price
```
…
count: false
 
## EV in WA state: Shares of makes across counties
.panel1-make_share_fail-auto[

```r
# bad example
*ev_data
```
]
 
.panel2-make_share_fail-auto[

```
# A tibble: 114,312 × 8
   county    city         make   model   model_year ev_type      elect…¹ retai…²
   <chr>     <chr>        <chr>  <chr>        <dbl> <chr>          <dbl>   <dbl>
 1 Kittitas  Cle Elum     TESLA  MODEL Y       2020 Battery Ele…     291       0
 2 Chelan    Chelan       TESLA  MODEL 3       2020 Battery Ele…     322       0
 3 Snohomish Snohomish    TESLA  MODEL 3       2018 Battery Ele…     215       0
 4 Thurston  Tumwater     FORD   C-MAX         2014 Plug-in Hyb…      19       0
 5 Kitsap    Kingston     FORD   FUSION        2013 Plug-in Hyb…      19       0
 6 King      Seattle      NISSAN LEAF          2018 Battery Ele…     151       0
 7 Skagit    Mount Vernon AUDI   E-TRON        2019 Battery Ele…     204       0
 8 Kitsap    Port Orchard NISSAN LEAF          2019 Battery Ele…     150       0
 9 Snohomish Bothell      TESLA  MODEL 3       2020 Battery Ele…     322       0
10 Yakima    Tieton       NISSAN LEAF          2019 Battery Ele…     150       0
# … with 114,302 more rows, and abbreviated variable names ¹​electric_range,
#   ²​retail_price
```
…
## EV in WA state: Shares of makes across counties
.panel1-make_share_fail-auto[

```r
# bad example
ev_data %>%
* group_by(county, make)
```
]
 
.panel2-make_share_fail-auto[

```
# A tibble: 114,312 × 8
# Groups:   county, make [829]
   county    city         make   model   model_year ev_type      elect…¹ retai…²
   <chr>     <chr>        <chr>  <chr>        <dbl> <chr>          <dbl>   <dbl>
 1 Kittitas  Cle Elum     TESLA  MODEL Y       2020 Battery Ele…     291       0
 2 Chelan    Chelan       TESLA  MODEL 3       2020 Battery Ele…     322       0
 3 Snohomish Snohomish    TESLA  MODEL 3       2018 Battery Ele…     215       0
 4 Thurston  Tumwater     FORD   C-MAX         2014 Plug-in Hyb…      19       0
 5 Kitsap    Kingston     FORD   FUSION        2013 Plug-in Hyb…      19       0
 6 King      Seattle      NISSAN LEAF          2018 Battery Ele…     151       0
 7 Skagit    Mount Vernon AUDI   E-TRON        2019 Battery Ele…     204       0
 8 Kitsap    Port Orchard NISSAN LEAF          2019 Battery Ele…     150       0
 9 Snohomish Bothell      TESLA  MODEL 3       2020 Battery Ele…     322       0
10 Yakima    Tieton       NISSAN LEAF          2019 Battery Ele…     150       0
# … with 114,302 more rows, and abbreviated variable names ¹​electric_range,
#   ²​retail_price
```
…
## EV in WA state: Shares of makes across counties
.panel1-make_share_fail-auto[

```r
# bad example
ev_data %>%
  group_by(county, make) %>%
* count()
```
]
 
.panel2-make_share_fail-auto[

```
# A tibble: 829 × 3
# Groups:   county, make [829]
   county make          n
   <chr>  <chr>     <int>
 1 Adams  AUDI          1
 2 Adams  BMW           1
 3 Adams  CHEVROLET     6
 4 Adams  CHRYSLER      1
 5 Adams  FORD          5
 6 Adams  JEEP          1
 7 Adams  NISSAN        2
 8 Adams  RIVIAN        1
 9 Adams  SMART         1
10 Adams  TESLA        16
# … with 819 more rows
```
…
count: false
 
## EV in WA state: Shares of makes across counties
.panel1-make_share1-auto[

```r
# Focus on the top 7 most popular makes
*ev_data
```
]
 
.panel2-make_share1-auto[

```
# A tibble: 114,312 × 8
   county    city         make   model   model_year ev_type      elect…¹ retai…²
   <chr>     <chr>        <chr>  <chr>        <dbl> <chr>          <dbl>   <dbl>
 1 Kittitas  Cle Elum     TESLA  MODEL Y       2020 Battery Ele…     291       0
 2 Chelan    Chelan       TESLA  MODEL 3       2020 Battery Ele…     322       0
 3 Snohomish Snohomish    TESLA  MODEL 3       2018 Battery Ele…     215       0
 4 Thurston  Tumwater     FORD   C-MAX         2014 Plug-in Hyb…      19       0
 5 Kitsap    Kingston     FORD   FUSION        2013 Plug-in Hyb…      19       0
 6 King      Seattle      NISSAN LEAF          2018 Battery Ele…     151       0
 7 Skagit    Mount Vernon AUDI   E-TRON        2019 Battery Ele…     204       0
 8 Kitsap    Port Orchard NISSAN LEAF          2019 Battery Ele…     150       0
 9 Snohomish Bothell      TESLA  MODEL 3       2020 Battery Ele…     322       0
10 Yakima    Tieton       NISSAN LEAF          2019 Battery Ele…     150       0
# … with 114,302 more rows, and abbreviated variable names ¹​electric_range,
#   ²​retail_price
```
…
## EV in WA state: Shares of makes across counties
.panel1-make_share1-auto[

```r
# Focus on the top 7 most popular makes
ev_data %>%
* count(make)
```
]
 
.panel2-make_share1-auto[

```
# A tibble: 34 × 2
   make               n
   <chr>          <int>
 1 AUDI            2368
 2 AZURE DYNAMICS     7
 3 BENTLEY            3
 4 BMW             4742
 5 CADILLAC         106
 6 CHEVROLET      10253
 7 CHRYSLER        1815
 8 FIAT             808
 9 FISKER            18
10 FORD            6047
# … with 24 more rows
```
…
count: false
 
## EV in WA state: Shares of makes across counties
.panel1-make_share2-auto[

```r
# Shares of top-7 makes across county
*ev_data
```
]
 
.panel2-make_share2-auto[

```
# A tibble: 114,312 × 8
   county    city         make   model   model_year ev_type      elect…¹ retai…²
   <chr>     <chr>        <chr>  <chr>        <dbl> <chr>          <dbl>   <dbl>
 1 Kittitas  Cle Elum     TESLA  MODEL Y       2020 Battery Ele…     291       0
 2 Chelan    Chelan       TESLA  MODEL 3       2020 Battery Ele…     322       0
 3 Snohomish Snohomish    TESLA  MODEL 3       2018 Battery Ele…     215       0
 4 Thurston  Tumwater     FORD   C-MAX         2014 Plug-in Hyb…      19       0
 5 Kitsap    Kingston     FORD   FUSION        2013 Plug-in Hyb…      19       0
 6 King      Seattle      NISSAN LEAF          2018 Battery Ele…     151       0
 7 Skagit    Mount Vernon AUDI   E-TRON        2019 Battery Ele…     204       0
 8 Kitsap    Port Orchard NISSAN LEAF          2019 Battery Ele…     150       0
 9 Snohomish Bothell      TESLA  MODEL 3       2020 Battery Ele…     322       0
10 Yakima    Tieton       NISSAN LEAF          2019 Battery Ele…     150       0
# … with 114,302 more rows, and abbreviated variable names ¹​electric_range,
#   ²​retail_price
```
…
## EV in WA state: Shares of makes across counties
.panel1-make_share2-auto[

```r
# Shares of top-7 makes across county
ev_data %>%
* group_by(county, make)
```
]
 
.panel2-make_share2-auto[

```
# A tibble: 114,312 × 8
# Groups:   county, make [829]
   county    city         make   model   model_year ev_type      elect…¹ retai…²
   <chr>     <chr>        <chr>  <chr>        <dbl> <chr>          <dbl>   <dbl>
 1 Kittitas  Cle Elum     TESLA  MODEL Y       2020 Battery Ele…     291       0
 2 Chelan    Chelan       TESLA  MODEL 3       2020 Battery Ele…     322       0
 3 Snohomish Snohomish    TESLA  MODEL 3       2018 Battery Ele…     215       0
 4 Thurston  Tumwater     FORD   C-MAX         2014 Plug-in Hyb…      19       0
 5 Kitsap    Kingston     FORD   FUSION        2013 Plug-in Hyb…      19       0
 6 King      Seattle      NISSAN LEAF          2018 Battery Ele…     151       0
 7 Skagit    Mount Vernon AUDI   E-TRON        2019 Battery Ele…     204       0
 8 Kitsap    Port Orchard NISSAN LEAF          2019 Battery Ele…     150       0
 9 Snohomish Bothell      TESLA  MODEL 3       2020 Battery Ele…     322       0
10 Yakima    Tieton       NISSAN LEAF          2019 Battery Ele…     150       0
# … with 114,302 more rows, and abbreviated variable names ¹​electric_range,
#   ²​retail_price
```
…
## EV in WA state: Shares of makes across counties
.panel1-make_share2-auto[

```r
# Shares of top-7 makes across county
ev_data %>%
  group_by(county, make) %>%
* count()
```
]
 
.panel2-make_share2-auto[

```
# A tibble: 829 × 3
# Groups:   county, make [829]
   county make          n
   <chr>  <chr>     <int>
 1 Adams  AUDI          1
 2 Adams  BMW           1
 3 Adams  CHEVROLET     6
 4 Adams  CHRYSLER      1
 5 Adams  FORD          5
 6 Adams  JEEP          1
 7 Adams  NISSAN        2
 8 Adams  RIVIAN        1
 9 Adams  SMART         1
10 Adams  TESLA        16
# … with 819 more rows
```
…
```r
# Shares of top-7 makes across county
ev_data %>%
  group_by(county, make) %>%
  count() %>%
* filter(make %in% top7_make$make)
```
]
 
.panel2-make_share2-auto[

```
# A tibble: 260 × 3
# Groups:   county, make [260]
   county make          n
   <chr>  <chr>     <int>
 1 Adams  BMW           1
 2 Adams  CHEVROLET     6
 3 Adams  FORD          5
 4 Adams  NISSAN        2
 5 Adams  TESLA        16
 6 Asotin CHEVROLET     5
 7 Asotin FORD          1
 8 Asotin KIA           2
 9 Asotin NISSAN        8
10 Asotin TESLA        14
# … with 250 more rows
```
…
```r
# Shares of top-7 makes across county
ev_data %>%
  group_by(county, make) %>%
  count() %>%
  filter(make %in% top7_make$make) %>%
* group_by(county)
```
]
 
.panel2-make_share2-auto[

```
# A tibble: 260 × 3
# Groups:   county [39]
   county make          n
   <chr>  <chr>     <int>
 1 Adams  BMW           1
 2 Adams  CHEVROLET     6
 3 Adams  FORD          5
 4 Adams  NISSAN        2
 5 Adams  TESLA        16
 6 Asotin CHEVROLET     5
 7 Asotin FORD          1
 8 Asotin KIA           2
 9 Asotin NISSAN        8
10 Asotin TESLA        14
# … with 250 more rows
```
…
