CS&SS 569 Visualizing Data and Models
…
## Geo-faceted small multiples
.panel1-geofacet1-auto[

```r
WaPo_data <- read_csv("data/WaPo_data.csv")

*print(WaPo_data, n = 5)
```
]
 
.panel2-geofacet1-auto[

```
# A tibble: 51 × 23
  stab  state    share…¹ share…² share…³ share…⁴ share…⁵ share…⁶ share…⁷ share…⁸
  <chr> <chr>      <dbl>   <dbl>   <dbl>   <dbl>   <dbl>   <dbl>   <dbl>   <dbl>
1 NC    North C…     1.4     0.9     3       4.1     3       3.9     1.5     3.8
2 AL    Alabama      1.1     2.4     5.2     4.6     3.5     5.6     2.5     2.8
3 MS    Mississ…     2       3.9     5.1     2.2     3.4     6.7     3.1     3.6
4 AR    Arkansas     1.6     1.3     1.6     2.7     2.7     2.8     0.6     3.1
5 TN    Tenness…     1.6     2       3.4     3.5     3.3     2.5     2.2     3.1
# … with 46 more rows, 13 more variables: share_cut2002 <dbl>,
#   share_cut2003 <dbl>, share_cut2004 <dbl>, share_cut2005 <dbl>,
#   share_cut2006 <dbl>, share_cut2007 <dbl>, share_cut2008 <dbl>,
#   share_cut2009 <dbl>, share_cut2010 <dbl>, share_cut2011 <dbl>,
#   share_cut2012 <dbl>, share_cut2013 <dbl>, avgshare <dbl>, and abbreviated
#   variable names ¹​share_cut1994, ²​share_cut1995, ³​share_cut1996,
#   ⁴​share_cut1997, ⁵​share_cut1998, ⁶​share_cut1999, ⁷​share_cut2000, …
```
…
count: false
 
## Geo-faceted small multiples
.panel1-geofacet2-auto[

```r
# convert the data into long format
*WaPo_data
```
]
 
.panel2-geofacet2-auto[

```
# A tibble: 51 × 23
   stab  state   share…¹ share…² share…³ share…⁴ share…⁵ share…⁶ share…⁷ share…⁸
   <chr> <chr>     <dbl>   <dbl>   <dbl>   <dbl>   <dbl>   <dbl>   <dbl>   <dbl>
 1 NC    North …     1.4     0.9     3       4.1     3       3.9     1.5     3.8
 2 AL    Alabama     1.1     2.4     5.2     4.6     3.5     5.6     2.5     2.8
 3 MS    Missis…     2       3.9     5.1     2.2     3.4     6.7     3.1     3.6
 4 AR    Arkans…     1.6     1.3     1.6     2.7     2.7     2.8     0.6     3.1
 5 TN    Tennes…     1.6     2       3.4     3.5     3.3     2.5     2.2     3.1
 6 SC    South …     1.5     1       2.5     0.7     2.7     1.2     1.6     4.1
 7 ME    Maine       2.3     1.9     3.5     1.7     5       1.5     2.2     3.3
 8 MI    Michig…     0.3     0.4     1.1     0.9     0.5     0.6     1.8     0.8
 9 OR    Oregon      0.4     0.7     1.3     0.8     1.9     1       3.7     1.5
10 KY    Kentuc…     2.5     1       3.1     1.8     1.5     2.6     1.8     2.4
# … with 41 more rows, 13 more variables: share_cut2002 <dbl>,
#   share_cut2003 <dbl>, share_cut2004 <dbl>, share_cut2005 <dbl>,
#   share_cut2006 <dbl>, share_cut2007 <dbl>, share_cut2008 <dbl>,
#   share_cut2009 <dbl>, share_cut2010 <dbl>, share_cut2011 <dbl>,
#   share_cut2012 <dbl>, share_cut2013 <dbl>, avgshare <dbl>, and abbreviated
#   variable names ¹​share_cut1994, ²​share_cut1995, ³​share_cut1996,
#   ⁴​share_cut1997, ⁵​share_cut1998, ⁶​share_cut1999, ⁷​share_cut2000, …
```
…
## Geo-faceted small multiples
.panel1-geofacet2-auto[

```r
# convert the data into long format
WaPo_data %>%
* select(-avgshare)
```
]
 
.panel2-geofacet2-auto[

```
# A tibble: 51 × 22
   stab  state   share…¹ share…² share…³ share…⁴ share…⁵ share…⁶ share…⁷ share…⁸
   <chr> <chr>     <dbl>   <dbl>   <dbl>   <dbl>   <dbl>   <dbl>   <dbl>   <dbl>
 1 NC    North …     1.4     0.9     3       4.1     3       3.9     1.5     3.8
 2 AL    Alabama     1.1     2.4     5.2     4.6     3.5     5.6     2.5     2.8
 3 MS    Missis…     2       3.9     5.1     2.2     3.4     6.7     3.1     3.6
 4 AR    Arkans…     1.6     1.3     1.6     2.7     2.7     2.8     0.6     3.1
 5 TN    Tennes…     1.6     2       3.4     3.5     3.3     2.5     2.2     3.1
 6 SC    South …     1.5     1       2.5     0.7     2.7     1.2     1.6     4.1
 7 ME    Maine       2.3     1.9     3.5     1.7     5       1.5     2.2     3.3
 8 MI    Michig…     0.3     0.4     1.1     0.9     0.5     0.6     1.8     0.8
 9 OR    Oregon      0.4     0.7     1.3     0.8     1.9     1       3.7     1.5
10 KY    Kentuc…     2.5     1       3.1     1.8     1.5     2.6     1.8     2.4
# … with 41 more rows, 12 more variables: share_cut2002 <dbl>,
#   share_cut2003 <dbl>, share_cut2004 <dbl>, share_cut2005 <dbl>,
#   share_cut2006 <dbl>, share_cut2007 <dbl>, share_cut2008 <dbl>,
#   share_cut2009 <dbl>, share_cut2010 <dbl>, share_cut2011 <dbl>,
#   share_cut2012 <dbl>, share_cut2013 <dbl>, and abbreviated variable names
#   ¹​share_cut1994, ²​share_cut1995, ³​share_cut1996, ⁴​share_cut1997,
#   ⁵​share_cut1998, ⁶​share_cut1999, ⁷​share_cut2000, ⁸​share_cut2001
```
…
## Geo-faceted small multiples
.panel1-geofacet2-auto[

```r
# convert the data into long format
WaPo_data %>%
  select(-avgshare) %>%
* pivot_longer(contains("share_cut"), names_to = "year", values_to = "share_cut")
```
]
 
.panel2-geofacet2-auto[

```
# A tibble: 1,020 × 4
   stab  state          year          share_cut
   <chr> <chr>          <chr>             <dbl>
 1 NC    North Carolina share_cut1994       1.4
 2 NC    North Carolina share_cut1995       0.9
 3 NC    North Carolina share_cut1996       3  
 4 NC    North Carolina share_cut1997       4.1
 5 NC    North Carolina share_cut1998       3  
 6 NC    North Carolina share_cut1999       3.9
 7 NC    North Carolina share_cut2000       1.5
 8 NC    North Carolina share_cut2001       3.8
 9 NC    North Carolina share_cut2002       6.1
10 NC    North Carolina share_cut2003       6.7
# … with 1,010 more rows
```
…
```r
# convert the data into long format
WaPo_data %>%
  select(-avgshare) %>%
  pivot_longer(contains("share_cut"), names_to = "year", values_to = "share_cut") %>%
* mutate(year = str_extract(year, "\\d+"),
*        year = as.numeric(year))
```
]
 
.panel2-geofacet2-auto[

```
# A tibble: 1,020 × 4
   stab  state           year share_cut
   <chr> <chr>          <dbl>     <dbl>
 1 NC    North Carolina  1994       1.4
 2 NC    North Carolina  1995       0.9
 3 NC    North Carolina  1996       3  
 4 NC    North Carolina  1997       4.1
 5 NC    North Carolina  1998       3  
 6 NC    North Carolina  1999       3.9
 7 NC    North Carolina  2000       1.5
 8 NC    North Carolina  2001       3.8
 9 NC    North Carolina  2002       6.1
10 NC    North Carolina  2003       6.7
# … with 1,010 more rows
```
…
count: false
 
## Cartogram heatmaps with statebins package
.panel1-statebins1-auto[

```r
# coerce avgshare into a factor
*WaPo_data
```
]
 
.panel2-statebins1-auto[

```
# A tibble: 51 × 23
   stab  state   share…¹ share…² share…³ share…⁴ share…⁵ share…⁶ share…⁷ share…⁸
   <chr> <chr>     <dbl>   <dbl>   <dbl>   <dbl>   <dbl>   <dbl>   <dbl>   <dbl>
 1 NC    North …     1.4     0.9     3       4.1     3       3.9     1.5     3.8
 2 AL    Alabama     1.1     2.4     5.2     4.6     3.5     5.6     2.5     2.8
 3 MS    Missis…     2       3.9     5.1     2.2     3.4     6.7     3.1     3.6
 4 AR    Arkans…     1.6     1.3     1.6     2.7     2.7     2.8     0.6     3.1
 5 TN    Tennes…     1.6     2       3.4     3.5     3.3     2.5     2.2     3.1
 6 SC    South …     1.5     1       2.5     0.7     2.7     1.2     1.6     4.1
 7 ME    Maine       2.3     1.9     3.5     1.7     5       1.5     2.2     3.3
 8 MI    Michig…     0.3     0.4     1.1     0.9     0.5     0.6     1.8     0.8
 9 OR    Oregon      0.4     0.7     1.3     0.8     1.9     1       3.7     1.5
10 KY    Kentuc…     2.5     1       3.1     1.8     1.5     2.6     1.8     2.4
# … with 41 more rows, 13 more variables: share_cut2002 <dbl>,
#   share_cut2003 <dbl>, share_cut2004 <dbl>, share_cut2005 <dbl>,
#   share_cut2006 <dbl>, share_cut2007 <dbl>, share_cut2008 <dbl>,
#   share_cut2009 <dbl>, share_cut2010 <dbl>, share_cut2011 <dbl>,
#   share_cut2012 <dbl>, share_cut2013 <dbl>, avgshare <dbl>, and abbreviated
#   variable names ¹​share_cut1994, ²​share_cut1995, ³​share_cut1996,
#   ⁴​share_cut1997, ⁵​share_cut1998, ⁶​share_cut1999, ⁷​share_cut2000, …
```
…
## Cartogram heatmaps with statebins package
.panel1-statebins1-auto[

```r
# coerce avgshare into a factor
WaPo_data %>%
* select(stab, state, avgshare)
```
]
 
.panel2-statebins1-auto[

```
# A tibble: 51 × 3
   stab  state          avgshare
   <chr> <chr>             <dbl>
 1 NC    North Carolina     3.56
 2 AL    Alabama            3.22
 3 MS    Mississippi        2.94
 4 AR    Arkansas           2.89
 5 TN    Tennessee          2.86
 6 SC    South Carolina     2.61
 7 ME    Maine              2.58
 8 MI    Michigan           2.55
 9 OR    Oregon             2.38
10 KY    Kentucky           2.24
# … with 41 more rows
```
…
```r
# coerce avgshare into a factor
WaPo_data %>%
  select(stab, state, avgshare) %>%
* mutate(avgshare2 = cut(avgshare,
*                        breaks = 4,
*                        labels = c("0-1", "1-2", "2-3", "3-4")))
```
]
 
.panel2-statebins1-auto[

```
# A tibble: 51 × 4
   stab  state          avgshare avgshare2
   <chr> <chr>             <dbl> <fct>    
 1 NC    North Carolina     3.56 3-4      
 2 AL    Alabama            3.22 3-4      
 3 MS    Mississippi        2.94 3-4      
 4 AR    Arkansas           2.89 3-4      
 5 TN    Tennessee          2.86 3-4      
 6 SC    South Carolina     2.61 2-3      
 7 ME    Maine              2.58 2-3      
 8 MI    Michigan           2.55 2-3      
 9 OR    Oregon             2.38 2-3      
10 KY    Kentucky           2.24 2-3      
# … with 41 more rows
```
…
count: false
 
## Cartogram heatmaps with statebins package
.panel1-statebins2-non_seq[

```r
WaPo_data2
```
]
 
.panel2-statebins2-non_seq[

```
# A tibble: 51 × 4
   stab  state          avgshare avgshare2
   <chr> <chr>             <dbl> <fct>    
 1 NC    North Carolina     3.56 3-4      
 2 AL    Alabama            3.22 3-4      
 3 MS    Mississippi        2.94 3-4      
 4 AR    Arkansas           2.89 3-4      
 5 TN    Tennessee          2.86 3-4      
 6 SC    South Carolina     2.61 2-3      
 7 ME    Maine              2.58 2-3      
 8 MI    Michigan           2.55 2-3      
 9 OR    Oregon             2.38 2-3      
10 KY    Kentucky           2.24 2-3      
# … with 41 more rows
```
…
