CS&SS 569 Visualizing Data and Models
…
```r
# load data
migrat2010 <- read_csv("data/migrat2010.csv")

# examine data: long list instead of adjacency matrix
*print(migrat2010)
```
]
 
.panel2-migrat1-auto[

```
# A tibble: 212 × 3
   origRegion      destRegion          flow
   <chr>           <chr>              <dbl>
 1 Caribbean       Caribbean          40506
 2 Caribbean       Central America     8183
 3 Caribbean       Northern America  533052
 4 Caribbean       Northern Europe    15584
 5 Caribbean       South America       3264
 6 Caribbean       Southern Europe    21711
 7 Caribbean       Western Europe     14875
 8 Central America Central America    99171
 9 Central America Northern America 1262880
10 Central America Northern Europe     1136
# … with 202 more rows
```
…
# examine data: long list instead of adjacency matrix
print(migrat2010)

# coerce to tbl_graph
*migrat2010_graph <- as_tbl_graph(migrat2010)
```
]
 
.panel2-migrat1-auto[

```
# A tibble: 212 × 3
   origRegion      destRegion          flow
   <chr>           <chr>              <dbl>
 1 Caribbean       Caribbean          40506
 2 Caribbean       Central America     8183
 3 Caribbean       Northern America  533052
 4 Caribbean       Northern Europe    15584
 5 Caribbean       South America       3264
 6 Caribbean       Southern Europe    21711
 7 Caribbean       Western Europe     14875
 8 Central America Central America    99171
 9 Central America Northern America 1262880
10 Central America Northern Europe     1136
# … with 202 more rows
```
…
count: false
 
## Migration flow: improving the heat map
.panel1-migrat4-auto[

```r
# use expand to create all unique combinations of variables
*migrat2010
```
]
 
.panel2-migrat4-auto[

```
# A tibble: 212 × 3
   origRegion      destRegion          flow
   <chr>           <chr>              <dbl>
 1 Caribbean       Caribbean          40506
 2 Caribbean       Central America     8183
 3 Caribbean       Northern America  533052
 4 Caribbean       Northern Europe    15584
 5 Caribbean       South America       3264
 6 Caribbean       Southern Europe    21711
 7 Caribbean       Western Europe     14875
 8 Central America Central America    99171
 9 Central America Northern America 1262880
10 Central America Northern Europe     1136
# … with 202 more rows
```
…
## Migration flow: improving the heat map
.panel1-migrat4-auto[

```r
# use expand to create all unique combinations of variables
migrat2010 %>%
* expand(origRegion, destRegion)
```
]
 
.panel2-migrat4-auto[

```
# A tibble: 361 × 2
   origRegion destRegion      
   <chr>      <chr>           
 1 Caribbean  Caribbean       
 2 Caribbean  Central America 
 3 Caribbean  Central Asia    
 4 Caribbean  Eastern Africa  
 5 Caribbean  Eastern Asia    
 6 Caribbean  Eastern Europe  
 7 Caribbean  Middle Africa   
 8 Caribbean  Northern Africa 
 9 Caribbean  Northern America
10 Caribbean  Northern Europe 
# … with 351 more rows
```
…
## Migration flow: improving the heat map
.panel1-migrat4-auto[

```r
# use expand to create all unique combinations of variables
migrat2010 %>%
  expand(origRegion, destRegion) %>%
* left_join(migrat2010, by = c("origRegion", "destRegion"))
```
]
 
.panel2-migrat4-auto[

```
# A tibble: 361 × 3
   origRegion destRegion         flow
   <chr>      <chr>             <dbl>
 1 Caribbean  Caribbean         40506
 2 Caribbean  Central America    8183
 3 Caribbean  Central Asia         NA
 4 Caribbean  Eastern Africa       NA
 5 Caribbean  Eastern Asia         NA
 6 Caribbean  Eastern Europe       NA
 7 Caribbean  Middle Africa        NA
 8 Caribbean  Northern Africa      NA
 9 Caribbean  Northern America 533052
10 Caribbean  Northern Europe   15584
# … with 351 more rows
```
…
# coerce flow into factors
*migrat2010
```
]
 
.panel2-migrat5-auto[

```
        0%        25%        50%        75%       100% 
   1058.00    9147.75   36104.00  153035.50 4497527.00 
```

```
# A tibble: 361 × 3
   origRegion destRegion         flow
   <chr>      <chr>             <dbl>
 1 Caribbean  Caribbean         40506
 2 Caribbean  Central America    8183
 3 Caribbean  Central Asia         NA
 4 Caribbean  Eastern Africa       NA
 5 Caribbean  Eastern Asia         NA
 6 Caribbean  Eastern Europe       NA
 7 Caribbean  Middle Africa        NA
 8 Caribbean  Northern Africa      NA
 9 Caribbean  Northern America 533052
10 Caribbean  Northern Europe   15584
# … with 351 more rows
```
…
.panel2-migrat5-auto[

```
        0%        25%        50%        75%       100% 
   1058.00    9147.75   36104.00  153035.50 4497527.00 
```

```
# A tibble: 361 × 4
   origRegion destRegion         flow flowCat    
   <chr>      <chr>             <dbl> <fct>      
 1 Caribbean  Caribbean         40506 10000-50000
 2 Caribbean  Central America    8183 5000-10000 
 3 Caribbean  Central Asia         NA <NA>       
 4 Caribbean  Eastern Africa       NA <NA>       
 5 Caribbean  Eastern Asia         NA <NA>       
 6 Caribbean  Eastern Europe       NA <NA>       
 7 Caribbean  Middle Africa        NA <NA>       
 8 Caribbean  Northern Africa      NA <NA>       
 9 Caribbean  Northern America 533052 >100000    
10 Caribbean  Northern Europe   15584 10000-50000
# … with 351 more rows
```
…
count: false
 
## Migration flow: improving the heat map
.panel1-migrat6-auto[

```r
# coerce long list into matrix
*migrat2010
```
]
 
.panel2-migrat6-auto[

```
# A tibble: 361 × 4
   origRegion destRegion         flow flowCat    
   <chr>      <chr>             <dbl> <fct>      
 1 Caribbean  Caribbean         40506 10000-50000
 2 Caribbean  Central America    8183 5000-10000 
 3 Caribbean  Central Asia         NA <NA>       
 4 Caribbean  Eastern Africa       NA <NA>       
 5 Caribbean  Eastern Asia         NA <NA>       
 6 Caribbean  Eastern Europe       NA <NA>       
 7 Caribbean  Middle Africa        NA <NA>       
 8 Caribbean  Northern Africa      NA <NA>       
 9 Caribbean  Northern America 533052 >100000    
10 Caribbean  Northern Europe   15584 10000-50000
# … with 351 more rows
```
…
count: false
 
## Migration flow: improving the heat map
.panel1-migrat8-auto[

```r
# re-level `origRegion` and `destRegion` according to the level
*migrat2010
```
]
 
.panel2-migrat8-auto[

```
# A tibble: 361 × 4
   origRegion destRegion         flow flowCat    
   <chr>      <chr>             <dbl> <fct>      
 1 Caribbean  Caribbean         40506 10000-50000
 2 Caribbean  Central America    8183 5000-10000 
 3 Caribbean  Central Asia         NA <NA>       
 4 Caribbean  Eastern Africa       NA <NA>       
 5 Caribbean  Eastern Asia         NA <NA>       
 6 Caribbean  Eastern Europe       NA <NA>       
 7 Caribbean  Middle Africa        NA <NA>       
 8 Caribbean  Northern Africa      NA <NA>       
 9 Caribbean  Northern America 533052 >100000    
10 Caribbean  Northern Europe   15584 10000-50000
# … with 351 more rows
```
…
```r
# re-level `origRegion` and `destRegion` according to the level
migrat2010 %>%
* mutate(
*   origRegion = factor(origRegion, levels = rev(countryLevels)),
*   destRegion = factor(destRegion, levels = countryLevels)
* )
```
]
 
.panel2-migrat8-auto[

```
# A tibble: 361 × 4
   origRegion destRegion         flow flowCat    
   <fct>      <fct>             <dbl> <fct>      
 1 Caribbean  Caribbean         40506 10000-50000
 2 Caribbean  Central America    8183 5000-10000 
 3 Caribbean  Central Asia         NA <NA>       
 4 Caribbean  Eastern Africa       NA <NA>       
 5 Caribbean  Eastern Asia         NA <NA>       
 6 Caribbean  Eastern Europe       NA <NA>       
 7 Caribbean  Middle Africa        NA <NA>       
 8 Caribbean  Northern Africa      NA <NA>       
 9 Caribbean  Northern America 533052 >100000    
10 Caribbean  Northern Europe   15584 10000-50000
# … with 351 more rows
```
…
## Migration flow: chord diagram
.panel1-chord2-auto[

```r
# Use mutate() and across() to recode `origRegion` and `destRegion` simultaneously  # Use mutate() and across() to recode `origRegion` and `destRegion` simultaneously
*migrat2010
```
]
 
.panel2-chord2-auto[

```
# A tibble: 361 × 4
   origRegion destRegion         flow flowCat    
   <fct>      <fct>             <dbl> <fct>      
 1 Caribbean  Caribbean         40506 10000-50000
 2 Caribbean  Central America    8183 5000-10000 
 3 Caribbean  Central Asia         NA <NA>       
 4 Caribbean  Eastern Africa       NA <NA>       
 5 Caribbean  Eastern Asia         NA <NA>       
 6 Caribbean  Eastern Europe       NA <NA>       
 7 Caribbean  Middle Africa        NA <NA>       
 8 Caribbean  Northern Africa      NA <NA>       
 9 Caribbean  Northern America 533052 >100000    
10 Caribbean  Northern Europe   15584 10000-50000
# … with 351 more rows
```
…
.panel2-chord2-auto[

```
# A tibble: 361 × 4
   origRegion                    destRegion                         flow flowCat
   <chr>                         <chr>                             <dbl> <fct>  
 1 "Latin America \n& Caribbean" "Latin America \n& Caribbean"     40506 10000-…
 2 "Latin America \n& Caribbean" "Latin America \n& Caribbean"      8183 5000-1…
 3 "Latin America \n& Caribbean" "Central Asia \n& Eastern Europ…     NA <NA>   
 4 "Latin America \n& Caribbean" "Africa"                             NA <NA>   
 5 "Latin America \n& Caribbean" "Eastern Asia"                       NA <NA>   
 6 "Latin America \n& Caribbean" "Central Asia \n& Eastern Europ…     NA <NA>   
 7 "Latin America \n& Caribbean" "Africa"                             NA <NA>   
 8 "Latin America \n& Caribbean" "Africa"                             NA <NA>   
 9 "Latin America \n& Caribbean" "Northern America"               533052 >100000
10 "Latin America \n& Caribbean" "Europe"                          15584 10000-…
# … with 351 more rows
```
…
.panel2-chord2-auto[

```
# A tibble: 361 × 4
   origRegion                    destRegion                         flow flowCat
   <fct>                         <fct>                             <dbl> <fct>  
 1 "Latin America \n& Caribbean" "Latin America \n& Caribbean"     40506 10000-…
 2 "Latin America \n& Caribbean" "Latin America \n& Caribbean"      8183 5000-1…
 3 "Latin America \n& Caribbean" "Central Asia \n& Eastern Europ…     NA <NA>   
 4 "Latin America \n& Caribbean" "Africa"                             NA <NA>   
 5 "Latin America \n& Caribbean" "Eastern Asia"                       NA <NA>   
 6 "Latin America \n& Caribbean" "Central Asia \n& Eastern Europ…     NA <NA>   
 7 "Latin America \n& Caribbean" "Africa"                             NA <NA>   
 8 "Latin America \n& Caribbean" "Africa"                             NA <NA>   
 9 "Latin America \n& Caribbean" "Northern America"               533052 >100000
10 "Latin America \n& Caribbean" "Europe"                          15584 10000-…
# … with 351 more rows
```
…
## Migration flow: chord diagram
.panel1-chord3-auto[

```r
# collapse (summing) flow values by newly aggregated regions  # collapse (summing) flow values by newly aggregated regions
*migrat2010
```
]
 
.panel2-chord3-auto[

```
# A tibble: 361 × 4
   origRegion                    destRegion                         flow flowCat
   <fct>                         <fct>                             <dbl> <fct>  
 1 "Latin America \n& Caribbean" "Latin America \n& Caribbean"     40506 10000-…
 2 "Latin America \n& Caribbean" "Latin America \n& Caribbean"      8183 5000-1…
 3 "Latin America \n& Caribbean" "Central Asia \n& Eastern Europ…     NA <NA>   
 4 "Latin America \n& Caribbean" "Africa"                             NA <NA>   
 5 "Latin America \n& Caribbean" "Eastern Asia"                       NA <NA>   
 6 "Latin America \n& Caribbean" "Central Asia \n& Eastern Europ…     NA <NA>   
 7 "Latin America \n& Caribbean" "Africa"                             NA <NA>   
 8 "Latin America \n& Caribbean" "Africa"                             NA <NA>   
 9 "Latin America \n& Caribbean" "Northern America"               533052 >100000
10 "Latin America \n& Caribbean" "Europe"                          15584 10000-…
# … with 351 more rows
```
…
## Migration flow: chord diagram
.panel1-chord3-auto[

```r
# collapse (summing) flow values by newly aggregated regions  # collapse (summing) flow values by newly aggregated regions
migrat2010 %>%
* group_by(origRegion, destRegion)
```
]
 
.panel2-chord3-auto[

```
# A tibble: 361 × 4
# Groups:   origRegion, destRegion [81]
   origRegion                    destRegion                         flow flowCat
   <fct>                         <fct>                             <dbl> <fct>  
 1 "Latin America \n& Caribbean" "Latin America \n& Caribbean"     40506 10000-…
 2 "Latin America \n& Caribbean" "Latin America \n& Caribbean"      8183 5000-1…
 3 "Latin America \n& Caribbean" "Central Asia \n& Eastern Europ…     NA <NA>   
 4 "Latin America \n& Caribbean" "Africa"                             NA <NA>   
 5 "Latin America \n& Caribbean" "Eastern Asia"                       NA <NA>   
 6 "Latin America \n& Caribbean" "Central Asia \n& Eastern Europ…     NA <NA>   
 7 "Latin America \n& Caribbean" "Africa"                             NA <NA>   
 8 "Latin America \n& Caribbean" "Africa"                             NA <NA>   
 9 "Latin America \n& Caribbean" "Northern America"               533052 >100000
10 "Latin America \n& Caribbean" "Europe"                          15584 10000-…
# … with 351 more rows
```
…
## Migration flow: chord diagram
.panel1-chord3-auto[

```r
# collapse (summing) flow values by newly aggregated regions  # collapse (summing) flow values by newly aggregated regions
migrat2010 %>%
  group_by(origRegion, destRegion) %>%
* summarize(flowTotal = sum(flow, na.rm = TRUE))
```
]
 
.panel2-chord3-auto[

```
# A tibble: 81 × 3
# Groups:   origRegion [9]
   origRegion    destRegion                        flowTotal
   <fct>         <fct>                                 <dbl>
 1 Southern Asia "Southern Asia"                     2673172
 2 Southern Asia "Eastern Asia"                       351312
 3 Southern Asia "Western Asia"                      3470257
 4 Southern Asia "Central Asia \n& Eastern Europe"     39640
 5 Southern Asia "Europe"                            1473643
 6 Southern Asia "Africa"                              43248
 7 Southern Asia "Latin America \n& Caribbean"          3367
 8 Southern Asia "Northern America"                  2201509
 9 Southern Asia "Oceania"                            509766
10 Eastern Asia  "Southern Asia"                      131667
# … with 71 more rows
```
…
```r
# collapse (summing) flow values by newly aggregated regions  # collapse (summing) flow values by newly aggregated regions
migrat2010 %>%
  group_by(origRegion, destRegion) %>%
  summarize(flowTotal = sum(flow, na.rm = TRUE)) %>%
* ungroup()
```
]
 
.panel2-chord3-auto[

```
# A tibble: 81 × 3
   origRegion    destRegion                        flowTotal
   <fct>         <fct>                                 <dbl>
 1 Southern Asia "Southern Asia"                     2673172
 2 Southern Asia "Eastern Asia"                       351312
 3 Southern Asia "Western Asia"                      3470257
 4 Southern Asia "Central Asia \n& Eastern Europe"     39640
 5 Southern Asia "Europe"                            1473643
 6 Southern Asia "Africa"                              43248
 7 Southern Asia "Latin America \n& Caribbean"          3367
 8 Southern Asia "Northern America"                  2201509
 9 Southern Asia "Oceania"                            509766
10 Eastern Asia  "Southern Asia"                      131667
# … with 71 more rows
```
…
count: false
 
## Migration flow: sankey diagram
.panel1-sankey1-auto[

```r
*migrat2010
```
]
 
.panel2-sankey1-auto[

```
# A tibble: 81 × 3
   origRegion    destRegion                        flowTotal
   <fct>         <fct>                                 <dbl>
 1 Southern Asia "Southern Asia"                     2673172
 2 Southern Asia "Eastern Asia"                       351312
 3 Southern Asia "Western Asia"                      3470257
 4 Southern Asia "Central Asia \n& Eastern Europe"     39640
 5 Southern Asia "Europe"                            1473643
 6 Southern Asia "Africa"                              43248
 7 Southern Asia "Latin America \n& Caribbean"          3367
 8 Southern Asia "Northern America"                  2201509
 9 Southern Asia "Oceania"                            509766
10 Eastern Asia  "Southern Asia"                      131667
# … with 71 more rows
```
…
## Migration flow: sankey diagram
.panel1-sankey1-auto[

```r
migrat2010 %>%
* mutate(across(c(origRegion, destRegion), ~ str_remove(.x, "\n")))
```
]
 
.panel2-sankey1-auto[

```
# A tibble: 81 × 3
   origRegion    destRegion                    flowTotal
   <chr>         <chr>                             <dbl>
 1 Southern Asia Southern Asia                   2673172
 2 Southern Asia Eastern Asia                     351312
 3 Southern Asia Western Asia                    3470257
 4 Southern Asia Central Asia & Eastern Europe     39640
 5 Southern Asia Europe                          1473643
 6 Southern Asia Africa                            43248
 7 Southern Asia Latin America & Caribbean          3367
 8 Southern Asia Northern America                2201509
 9 Southern Asia Oceania                          509766
10 Eastern Asia  Southern Asia                    131667
# … with 71 more rows
```
…
## Migration flow: sankey diagram
.panel1-sankey1-auto[

```r
migrat2010 %>%
  mutate(across(c(origRegion, destRegion), ~ str_remove(.x, "\n"))) %>%
* ggsankey::make_long(origRegion, destRegion, value = flowTotal)
```
]
 
.panel2-sankey1-auto[

```
# A tibble: 162 × 5
   x          node                          next_x     next_node           value
   <fct>      <chr>                         <fct>      <chr>               <dbl>
 1 origRegion Southern Asia                 destRegion Southern Asia      2.67e6
 2 destRegion Southern Asia                 <NA>       <NA>               2.67e6
 3 origRegion Southern Asia                 destRegion Eastern Asia       3.51e5
 4 destRegion Eastern Asia                  <NA>       <NA>               3.51e5
 5 origRegion Southern Asia                 destRegion Western Asia       3.47e6
 6 destRegion Western Asia                  <NA>       <NA>               3.47e6
 7 origRegion Southern Asia                 destRegion Central Asia & Ea… 3.96e4
 8 destRegion Central Asia & Eastern Europe <NA>       <NA>               3.96e4
 9 origRegion Southern Asia                 destRegion Europe             1.47e6
10 destRegion Europe                        <NA>       <NA>               1.47e6
# … with 152 more rows
```
…
